23,
Pythos,Blukswick
Glinda,Thrandsson
Elyas,Kluster
Marissandra,Hymserr
Lanslet,Jasmodin
Harric,Armagarius
Meredice,Fobb
Laurias,Drasten
Thissaria,Ughar
Godefroy,De kul
Aumeillgu,Habestoen
Niureela,Juskins
Clavinios,Sythiusen
Vinke,Gohdir
Talivine,Kaltt
Ontenia,Mundhy
Hosmat,Valekten
Wamiss,Thelasnoir
Haicra,Nagahein
Luitgarde,Boyn
Xathorius,Kjoll
Thandocar,Folenrickssen
Maelus,Noldensson