%YAML 1.1
%TAG !u! tag:unity3d.com,2011:
--- !u!114 &11400000
MonoBehaviour:
  m_ObjectHideFlags: 0
  m_CorrespondingSourceObject: {fileID: 0}
  m_PrefabInstance: {fileID: 0}
  m_PrefabAsset: {fileID: 0}
  m_GameObject: {fileID: 0}
  m_Enabled: 1
  m_EditorHideFlags: 0
  m_Script: {fileID: 11500000, guid: 630bd66eb738c6343bb0e3dc5e494528, type: 3}
  m_Name: 93134628-CB60-4246-B0C2-0427C17FBCB0
  m_EditorClassIdentifier: 
  objectName: UI_LivingEvent
  id: 4012865327
  guid: 93134628-CB60-4246-B0C2-0427C17FBCB0
