%YAML 1.1
%TAG !u! tag:unity3d.com,2011:
--- !u!114 &11400000
MonoBehaviour:
  m_ObjectHideFlags: 0
  m_CorrespondingSourceObject: {fileID: 0}
  m_PrefabInstance: {fileID: 0}
  m_PrefabAsset: {fileID: 0}
  m_GameObject: {fileID: 0}
  m_Enabled: 1
  m_EditorHideFlags: 0
  m_Script: {fileID: 11500000, guid: d9726c831ad0e17479e23e8783e7f70e, type: 3}
  m_Name: AkWwiseProjectData
  m_EditorClassIdentifier: 
  AcousticTextureWwu:
  - PhysicalPath: Virtual Acoustics\Default Work Unit.wwu
    PathAndIcons: []
    ParentPath: 
    guid: 00000000000000000000000000000000
    GuidInternal: 
    m_lastTime: -8585988363218441115
    List: []
  AuxBusWwu:
  - PhysicalPath: Master-Mixer Hierarchy\Default Work Unit.wwu
    PathAndIcons: []
    ParentPath: 
    guid: 00000000000000000000000000000000
    GuidInternal: 
    m_lastTime: -8585988363225189375
    List:
    - name: RVB_Battlefield
      guid: 6e6a932451353242a95f3a08cb381711
      id: 1775981102
      PathAndIcons:
      - ElementName: Default Work Unit
        ObjectType: 12
      - ElementName: Master Audio Bus
        ObjectType: 2
      - ElementName: Sound Design
        ObjectType: 2
      - ElementName: Aux
        ObjectType: 2
      - ElementName: RVB_Battlefield
        ObjectType: 1
      Path: Default Work Unit\Master Audio Bus\Sound Design\Aux\RVB_Battlefield
    - name: RVB_Forge
      guid: 4f44015fd2472e4ab9e3838631482a63
      id: 3907231393
      PathAndIcons:
      - ElementName: Default Work Unit
        ObjectType: 12
      - ElementName: Master Audio Bus
        ObjectType: 2
      - ElementName: Sound Design
        ObjectType: 2
      - ElementName: Aux
        ObjectType: 2
      - ElementName: RVB_Forge
        ObjectType: 1
      Path: Default Work Unit\Master Audio Bus\Sound Design\Aux\RVB_Forge
  BankWwu:
  - PhysicalPath: SoundBanks\Default Work Unit.wwu
    PathAndIcons: []
    ParentPath: 
    guid: 00000000000000000000000000000000
    GuidInternal: 
    m_lastTime: -8585988363219362771
    List: []
  - PhysicalPath: SoundBanks\Main_SNB.wwu
    PathAndIcons: []
    ParentPath: 
    guid: 00000000000000000000000000000000
    GuidInternal: 
    m_lastTime: -8585988363219482633
    List:
    - name: Battlefield_SNB
      guid: 2a7fffb18f8bab468d5d8972d113e9de
      id: 776956199
      PathAndIcons:
      - ElementName: Main_SNB
        ObjectType: 12
      - ElementName: Battlefield_SNB
        ObjectType: 7
      Path: Main_SNB\Battlefield_SNB
    - name: Music_SNB
      guid: 550b03585f8a36419f2cb4a0adf33e2b
      id: 2767260180
      PathAndIcons:
      - ElementName: Main_SNB
        ObjectType: 12
      - ElementName: Music_SNB
        ObjectType: 7
      Path: Main_SNB\Music_SNB
    - name: SFX_SNB
      guid: e6a6825f6b40f34fb7ddd7748b00cd6b
      id: 26215100
      PathAndIcons:
      - ElementName: Main_SNB
        ObjectType: 12
      - ElementName: SFX_SNB
        ObjectType: 7
      Path: Main_SNB\SFX_SNB
  EventWwu:
  - PhysicalPath: Events\Default Work Unit.wwu
    PathAndIcons: []
    ParentPath: 
    guid: 00000000000000000000000000000000
    GuidInternal: 
    m_lastTime: -8585988363225548543
    List: []
  - PhysicalPath: Events\Music Event.wwu
    PathAndIcons: []
    ParentPath: 
    guid: 00000000000000000000000000000000
    GuidInternal: 
    m_lastTime: -8585988363219562502
    List:
    - name: Play_Music_Loose
      guid: 7602c7eb88d2d04cb375bffcda8bfebe
      id: 3640900608
      PathAndIcons:
      - ElementName: Music Event
        ObjectType: 12
      - ElementName: Play_Music_Loose
        ObjectType: 3
      Path: Music Event\Play_Music_Loose
      maxAttenuation: 0
      maxDuration: -1
      minDuration: -1
    - name: Play_Music_SplashScreen
      guid: 8254d71367c6c64bacd258021a4f0524
      id: 2524099115
      PathAndIcons:
      - ElementName: Music Event
        ObjectType: 12
      - ElementName: Play_Music_SplashScreen
        ObjectType: 3
      Path: Music Event\Play_Music_SplashScreen
      maxAttenuation: 0
      maxDuration: -1
      minDuration: -1
    - name: Play_Music_Win
      guid: 2f7966baa3a47a4a971e0cd9968f9b54
      id: 3368677440
      PathAndIcons:
      - ElementName: Music Event
        ObjectType: 12
      - ElementName: Play_Music_Win
        ObjectType: 3
      Path: Music Event\Play_Music_Win
      maxAttenuation: 0
      maxDuration: -1
      minDuration: -1
  - PhysicalPath: Events\SD Event.wwu
    PathAndIcons: []
    ParentPath: 
    guid: 00000000000000000000000000000000
    GuidInternal: 
    m_lastTime: -8585988363219801834
    List:
    - name: Amb_Forge
      guid: a2c647c1b4b5e84cb7eb75a127b537c2
      id: 3017358643
      PathAndIcons:
      - ElementName: SD Event
        ObjectType: 12
      - ElementName: Ambiance
        ObjectType: 4
      - ElementName: Forge
        ObjectType: 4
      - ElementName: Amb_Forge
        ObjectType: 3
      Path: SD Event\Ambiance\Forge\Amb_Forge
      maxAttenuation: 0
      maxDuration: -1
      minDuration: -1
    - name: Catapult_Event
      guid: 05c94f625997c54ab95d37b23cfbe26d
      id: 1385432048
      PathAndIcons:
      - ElementName: SD Event
        ObjectType: 12
      - ElementName: Battlefield
        ObjectType: 4
      - ElementName: Catapult_Event
        ObjectType: 3
      Path: SD Event\Battlefield\Catapult_Event
      maxAttenuation: 0
      maxDuration: -1
      minDuration: -1
    - name: Foley_Door
      guid: 7f8fefbbef715344acc6e9b6073b5058
      id: 3332999173
      PathAndIcons:
      - ElementName: SD Event
        ObjectType: 12
      - ElementName: Foley
        ObjectType: 4
      - ElementName: Foley_Door
        ObjectType: 3
      Path: SD Event\Foley\Foley_Door
      maxAttenuation: 0
      maxDuration: -1
      minDuration: -1
    - name: Play_BattlefieldAmbiance
      guid: 4036245fabe0a34c82cca9f03a75395d
      id: 3316639316
      PathAndIcons:
      - ElementName: SD Event
        ObjectType: 12
      - ElementName: Battlefield
        ObjectType: 4
      - ElementName: Play_BattlefieldAmbiance
        ObjectType: 3
      Path: SD Event\Battlefield\Play_BattlefieldAmbiance
      maxAttenuation: 0
      maxDuration: -1
      minDuration: -1
    - name: Play_Test
      guid: 1335c2cdc5949d43b0a0f8ffd8fb0371
      id: 3187507146
      PathAndIcons:
      - ElementName: SD Event
        ObjectType: 12
      - ElementName: Play_Test
        ObjectType: 3
      Path: SD Event\Play_Test
      maxAttenuation: 0
      maxDuration: -1
      minDuration: -1
    - name: RestartGame
      guid: ca6e54dfd097e74989d07673a77f4f4f
      id: 2905552884
      PathAndIcons:
      - ElementName: SD Event
        ObjectType: 12
      - ElementName: General
        ObjectType: 4
      - ElementName: RestartGame
        ObjectType: 3
      Path: SD Event\General\RestartGame
      maxAttenuation: 0
      maxDuration: -1
      minDuration: -1
    - name: Set_DoorClose
      guid: a73757f1ea94874799d81a947ed7565c
      id: 238286794
      PathAndIcons:
      - ElementName: SD Event
        ObjectType: 12
      - ElementName: Battlefield
        ObjectType: 4
      - ElementName: Set_DoorClose
        ObjectType: 3
      Path: SD Event\Battlefield\Set_DoorClose
      maxAttenuation: 0
      maxDuration: -1
      minDuration: -1
    - name: Set_DoorOpen
      guid: 1d69c7fff62d0c4f9e09fcc4ed625213
      id: 2718873070
      PathAndIcons:
      - ElementName: SD Event
        ObjectType: 12
      - ElementName: Battlefield
        ObjectType: 4
      - ElementName: Set_DoorOpen
        ObjectType: 3
      Path: SD Event\Battlefield\Set_DoorOpen
      maxAttenuation: 0
      maxDuration: -1
      minDuration: -1
    - name: Set_IntensityCalm
      guid: 869f5e324464954ea86f13b4f2443a5e
      id: 4236667796
      PathAndIcons:
      - ElementName: SD Event
        ObjectType: 12
      - ElementName: Battlefield
        ObjectType: 4
      - ElementName: Set_IntensityCalm
        ObjectType: 3
      Path: SD Event\Battlefield\Set_IntensityCalm
      maxAttenuation: 0
      maxDuration: -1
      minDuration: -1
    - name: Set_IntensityExtreme
      guid: fbd340491256d848b9e0438db7edc2c3
      id: 1912983523
      PathAndIcons:
      - ElementName: SD Event
        ObjectType: 12
      - ElementName: Battlefield
        ObjectType: 4
      - ElementName: Set_IntensityExtreme
        ObjectType: 3
      Path: SD Event\Battlefield\Set_IntensityExtreme
      maxAttenuation: 0
      maxDuration: -1
      minDuration: -1
    - name: Set_IntensityHigh
      guid: b9ad694825660a408dc6e769daca9045
      id: 4034190369
      PathAndIcons:
      - ElementName: SD Event
        ObjectType: 12
      - ElementName: Battlefield
        ObjectType: 4
      - ElementName: Set_IntensityHigh
        ObjectType: 3
      Path: SD Event\Battlefield\Set_IntensityHigh
      maxAttenuation: 0
      maxDuration: -1
      minDuration: -1
    - name: Set_IntensityLow
      guid: 2b6e27e0ecf2f344aef5f22def471635
      id: 3635806469
      PathAndIcons:
      - ElementName: SD Event
        ObjectType: 12
      - ElementName: Battlefield
        ObjectType: 4
      - ElementName: Set_IntensityLow
        ObjectType: 3
      Path: SD Event\Battlefield\Set_IntensityLow
      maxAttenuation: 0
      maxDuration: -1
      minDuration: -1
    - name: Set_IntensityMedium
      guid: 4c3b1027f270f74baafee54323fa0726
      id: 716215376
      PathAndIcons:
      - ElementName: SD Event
        ObjectType: 12
      - ElementName: Battlefield
        ObjectType: 4
      - ElementName: Set_IntensityMedium
        ObjectType: 3
      Path: SD Event\Battlefield\Set_IntensityMedium
      maxAttenuation: 0
      maxDuration: -1
      minDuration: -1
    - name: Set_Loosing
      guid: 1baa9210ee5d67419ecae34220cbc6ce
      id: 1592413729
      PathAndIcons:
      - ElementName: SD Event
        ObjectType: 12
      - ElementName: Battlefield
        ObjectType: 4
      - ElementName: Set_Loosing
        ObjectType: 3
      Path: SD Event\Battlefield\Set_Loosing
      maxAttenuation: 0
      maxDuration: -1
      minDuration: -1
    - name: Set_Winning
      guid: 4cb1388b7b8443408fa6742a844e8bfc
      id: 1205857978
      PathAndIcons:
      - ElementName: SD Event
        ObjectType: 12
      - ElementName: Battlefield
        ObjectType: 4
      - ElementName: Set_Winning
        ObjectType: 3
      Path: SD Event\Battlefield\Set_Winning
      maxAttenuation: 0
      maxDuration: -1
      minDuration: -1
    - name: Stop_Ambiance
      guid: 2cc101567465714285034a2e0e8c671f
      id: 2839405212
      PathAndIcons:
      - ElementName: SD Event
        ObjectType: 12
      - ElementName: Stop_Ambiance
        ObjectType: 3
      Path: SD Event\Stop_Ambiance
      maxAttenuation: 0
      maxDuration: -1
      minDuration: -1
    - name: UI_AddItem
      guid: 07f6c35f6a0d0c4aa3913accc1a6d114
      id: 2921734634
      PathAndIcons:
      - ElementName: SD Event
        ObjectType: 12
      - ElementName: UI
        ObjectType: 4
      - ElementName: UI_AddItem
        ObjectType: 3
      Path: SD Event\UI\UI_AddItem
      maxAttenuation: 0
      maxDuration: -1
      minDuration: -1
    - name: UI_DeathEvent
      guid: ee47782c03db7a40b4f46bcd9e314900
      id: 802821452
      PathAndIcons:
      - ElementName: SD Event
        ObjectType: 12
      - ElementName: UI
        ObjectType: 4
      - ElementName: UI_DeathEvent
        ObjectType: 3
      Path: SD Event\UI\UI_DeathEvent
      maxAttenuation: 0
      maxDuration: -1
      minDuration: -1
    - name: UI_DialEvent
      guid: 9c7c684009d3c340b1a6659b5f931ebc
      id: 3688695384
      PathAndIcons:
      - ElementName: SD Event
        ObjectType: 12
      - ElementName: UI
        ObjectType: 4
      - ElementName: UI_DialEvent
        ObjectType: 3
      Path: SD Event\UI\UI_DialEvent
      maxAttenuation: 0
      maxDuration: -1
      minDuration: -1
    - name: UI_GameStart
      guid: 60a3afafde144b40aad89254147f675e
      id: 2329456136
      PathAndIcons:
      - ElementName: SD Event
        ObjectType: 12
      - ElementName: UI
        ObjectType: 4
      - ElementName: UI_GameStart
        ObjectType: 3
      Path: SD Event\UI\UI_GameStart
      maxAttenuation: 0
      maxDuration: -1
      minDuration: -1
    - name: UI_HammerClick
      guid: c1ce16eed73a174c8da86a72f6a59110
      id: 2751239240
      PathAndIcons:
      - ElementName: SD Event
        ObjectType: 12
      - ElementName: UI
        ObjectType: 4
      - ElementName: UI_HammerClick
        ObjectType: 3
      Path: SD Event\UI\UI_HammerClick
      maxAttenuation: 0
      maxDuration: -1
      minDuration: -1
    - name: UI_LivingEvent
      guid: 2846139360cb4642b0c20427c17fbcb0
      id: 4012865327
      PathAndIcons:
      - ElementName: SD Event
        ObjectType: 12
      - ElementName: UI
        ObjectType: 4
      - ElementName: UI_LivingEvent
        ObjectType: 3
      Path: SD Event\UI\UI_LivingEvent
      maxAttenuation: 0
      maxDuration: -1
      minDuration: -1
    - name: UI_RemoveItem
      guid: 98c807a9aeac354da85564af947963dc
      id: 2628486379
      PathAndIcons:
      - ElementName: SD Event
        ObjectType: 12
      - ElementName: UI
        ObjectType: 4
      - ElementName: UI_RemoveItem
        ObjectType: 3
      Path: SD Event\UI\UI_RemoveItem
      maxAttenuation: 0
      maxDuration: -1
      minDuration: -1
    - name: UI_Validate
      guid: 041c2c503142d546a310e4306911a28e
      id: 873092944
      PathAndIcons:
      - ElementName: SD Event
        ObjectType: 12
      - ElementName: UI
        ObjectType: 4
      - ElementName: UI_Validate
        ObjectType: 3
      Path: SD Event\UI\UI_Validate
      maxAttenuation: 0
      maxDuration: -1
      minDuration: -1
  RtpcWwu:
  - PhysicalPath: Game Parameters\Default Work Unit.wwu
    PathAndIcons: []
    ParentPath: 
    guid: 00000000000000000000000000000000
    GuidInternal: 
    m_lastTime: -8585988363219282887
    List:
    - name: masterVolume
      guid: 43ea94c23bbd24428c206333345c8fd3
      id: 2918011349
      PathAndIcons:
      - ElementName: Default Work Unit
        ObjectType: 12
      - ElementName: masterVolume
        ObjectType: 13
      Path: Default Work Unit\masterVolume
    - name: musicVolume
      guid: 13d79242dd3eb747afabc941a10a9ec4
      id: 2346531308
      PathAndIcons:
      - ElementName: Default Work Unit
        ObjectType: 12
      - ElementName: musicVolume
        ObjectType: 13
      Path: Default Work Unit\musicVolume
    - name: SFXVolume
      guid: fe49ab98e9715045a66d3fa0a8333303
      id: 988953028
      PathAndIcons:
      - ElementName: Default Work Unit
        ObjectType: 12
      - ElementName: SFXVolume
        ObjectType: 13
      Path: Default Work Unit\SFXVolume
  - PhysicalPath: Game Parameters\Music RTPC.wwu
    PathAndIcons: []
    ParentPath: 
    guid: 00000000000000000000000000000000
    GuidInternal: 
    m_lastTime: -8585988363219242922
    List: []
  - PhysicalPath: Game Parameters\SD RTPC.wwu
    PathAndIcons: []
    ParentPath: 
    guid: 00000000000000000000000000000000
    GuidInternal: 
    m_lastTime: -8585988363219322841
    List:
    - name: Intensity
      guid: baddd7195a0b4c4888615536033a132d
      id: 2470328564
      PathAndIcons:
      - ElementName: SD RTPC
        ObjectType: 12
      - ElementName: Intensity
        ObjectType: 13
      Path: SD RTPC\Intensity
    - name: SideChain
      guid: 869c2151cb26f84fbbe3170fe980e1e3
      id: 1883033791
      PathAndIcons:
      - ElementName: SD RTPC
        ObjectType: 12
      - ElementName: SideChain
        ObjectType: 13
      Path: SD RTPC\SideChain
  StateWwu:
  - PhysicalPath: States\Default Work Unit.wwu
    PathAndIcons: []
    ParentPath: 
    guid: 00000000000000000000000000000000
    GuidInternal: 
    m_lastTime: -8585988363219402740
    List: []
  - PhysicalPath: States\Music States.wwu
    PathAndIcons: []
    ParentPath: 
    guid: 00000000000000000000000000000000
    GuidInternal: 
    m_lastTime: -8585988363219282887
    List: []
  - PhysicalPath: States\SD States.wwu
    PathAndIcons: []
    ParentPath: 
    guid: 00000000000000000000000000000000
    GuidInternal: 
    m_lastTime: -8585988363218843476
    List:
    - name: BattleIntensity
      guid: a90a35664c3c55468782643086f24cb7
      id: 2514675686
      PathAndIcons:
      - ElementName: SD States
        ObjectType: 12
      - ElementName: BattleIntensity
        ObjectType: 9
      Path: SD States\BattleIntensity
      values:
      - name: Calm
        guid: 6f419756f4d83f40b5c3c9d79b5b7e18
        id: 3753286132
        PathAndIcons:
        - ElementName: Calm
          ObjectType: 8
      - name: Extreme
        guid: 95e590f32d9f554a8a72cf5fa4663e40
        id: 2188986819
        PathAndIcons:
        - ElementName: Extreme
          ObjectType: 8
      - name: High
        guid: b04bd2ae4e19a941ae94d33aab0cf141
        id: 3550808449
        PathAndIcons:
        - ElementName: High
          ObjectType: 8
      - name: Low
        guid: a5389a787a104642836511c03cb9a1da
        id: 545371365
        PathAndIcons:
        - ElementName: Low
          ObjectType: 8
      - name: Medium
        guid: 6b56f79cea49e446a2b1a54f352fc3f7
        id: 2849147824
        PathAndIcons:
        - ElementName: Medium
          ObjectType: 8
      - name: None
        guid: 75aab1bd1527d8489f936a9047585bc1
        id: 748895195
        PathAndIcons:
        - ElementName: None
          ObjectType: 8
      ValueGuids: []
      ValueIcons: []
      valuesInternal: []
    - name: DoorStates
      guid: 0f7ca327a2024547aa5199e8f8346823
      id: 33159115
      PathAndIcons:
      - ElementName: SD States
        ObjectType: 12
      - ElementName: DoorStates
        ObjectType: 9
      Path: SD States\DoorStates
      values:
      - name: Closed
        guid: 0d3e53c2e6ffda4cbaa1366a3343cb8b
        id: 3012222945
        PathAndIcons:
        - ElementName: Closed
          ObjectType: 8
      - name: None
        guid: 41d1165eaf424f4094d85c66ac92d041
        id: 748895195
        PathAndIcons:
        - ElementName: None
          ObjectType: 8
      - name: Open
        guid: 82915332db4874499a26327339ba3d66
        id: 3072142513
        PathAndIcons:
        - ElementName: Open
          ObjectType: 8
      ValueGuids: []
      ValueIcons: []
      valuesInternal: []
    - name: WinningState
      guid: f5b3a26178effb42a7929545a750b5f1
      id: 125032842
      PathAndIcons:
      - ElementName: SD States
        ObjectType: 12
      - ElementName: WinningState
        ObjectType: 9
      Path: SD States\WinningState
      values:
      - name: Loosing
        guid: e802886844458f4993dc5974315b174f
        id: 1545774708
        PathAndIcons:
        - ElementName: Loosing
          ObjectType: 8
      - name: None
        guid: 35b51680cd22fd45a77bae6692072be4
        id: 748895195
        PathAndIcons:
        - ElementName: None
          ObjectType: 8
      - name: Winning
        guid: 0770da2de7a6ee499c088f8242aaf947
        id: 2996998095
        PathAndIcons:
        - ElementName: Winning
          ObjectType: 8
      ValueGuids: []
      ValueIcons: []
      valuesInternal: []
  SwitchWwu:
  - PhysicalPath: Switches\Default Work Unit.wwu
    PathAndIcons: []
    ParentPath: 
    guid: 00000000000000000000000000000000
    GuidInternal: 
    m_lastTime: -8585988363225628786
    List: []
  - PhysicalPath: Switches\Music Switches.wwu
    PathAndIcons: []
    ParentPath: 
    guid: 00000000000000000000000000000000
    GuidInternal: 
    m_lastTime: -8585988363225548543
    List: []
  - PhysicalPath: Switches\SD Switches.wwu
    PathAndIcons: []
    ParentPath: 
    guid: 00000000000000000000000000000000
    GuidInternal: 
    m_lastTime: -8585988363219522576
    List: []
  TriggerWwu:
  - PhysicalPath: Triggers\Default Work Unit.wwu
    PathAndIcons: []
    ParentPath: 
    guid: 00000000000000000000000000000000
    GuidInternal: 
    m_lastTime: -8585988363218561193
    List: []
  ExpandedItems: []
  autoPopulateEnabled: 1
  CurrentPluginConfig: 
