%YAML 1.1
%TAG !u! tag:unity3d.com,2011:
--- !u!114 &11400000
MonoBehaviour:
  m_ObjectHideFlags: 0
  m_CorrespondingSourceObject: {fileID: 0}
  m_PrefabInstance: {fileID: 0}
  m_PrefabAsset: {fileID: 0}
  m_GameObject: {fileID: 0}
  m_Enabled: 1
  m_EditorHideFlags: 0
  m_Script: {fileID: 11500000, guid: 6dc86ad1aafc5a644a6f5c4f41e70c2e, type: 3}
  m_Name: gear-set01
  m_EditorClassIdentifier: 
  gearParts:
  - {fileID: 11400000, guid: f3f3d514f95f73c499ec74a2582e1013, type: 2}
  - {fileID: 11400000, guid: 18c7d66f5b88b494daa83d567d5c10be, type: 2}
  - {fileID: 11400000, guid: c8eedb7c09fb87e47934aacff9b688df, type: 2}
