%YAML 1.1
%TAG !u! tag:unity3d.com,2011:
--- !u!78 &1
TagManager:
  serializedVersion: 2
  tags:
  - ValidateButton
  layers:
  - Default
  - TransparentFX
  - Ignore Raycast
  - 
  - Water
  - UI
  - 
  - 
  - postprocess
  - afterTransparent
  - 
  - 
  - 
  - 
  - 
  - 
  - 
  - 
  - 
  - 
  - 
  - 
  - 
  - 
  - 
  - 
  - 
  - 
  - 
  - 
  - 
  - 
  m_SortingLayers:
  - name: Default
    uniqueID: 0
    locked: 0
  - name: Background
    uniqueID: 1452903219
    locked: 0
  - name: Middleground
    uniqueID: 4063933945
    locked: 0
  - name: Foreground
    uniqueID: 2834064507
    locked: 0
  - name: UI
    uniqueID: 1836578975
    locked: 0
